{
  "endpoint": "GET /product_analytics/default_product_analytics",
  "method": "GET",
  "raw_url": "https://api.everbee.com/product_analytics/default_product_analytics?time_range=last_1_month&order_by=est_mo_revenue&order_direction=desc&page=1&per_page=20",
  "status": 200,
  "request_headers": {
    ":authority": "api.everbee.com",
    ":method": "GET",
    ":path": "/product_analytics/default_product_analytics?time_range=last_1_month&order_by=est_mo_revenue&order_direction=desc&page=1&per_page=20",
    ":scheme": "https",
    "accept": "application/json",
    "accept-encoding": "gzip, deflate, br, zstd",
    "accept-language": "en-US,en;q=0.9",
    "cache-control": "no-cache",
    "origin": "https://app.everbee.io",
    "pragma": "no-cache",
    "priority": "u=1, i",
    "referer": "https://app.everbee.io/",
    "sec-ch-ua": "\"Chromium\";v=\"148\", \"Google Chrome\";v=\"148\", \"Not/A)Brand\";v=\"99\"",
    "sec-ch-ua-mobile": "?0",
    "sec-ch-ua-platform": "\"macOS\"",
    "sec-fetch-dest": "empty",
    "sec-fetch-mode": "cors",
    "sec-fetch-site": "cross-site",
    "user-agent": "Mozilla/5.0 (Macintosh; Intel Mac OS X 10_15_7) AppleWebKit/537.36 (KHTML, like Gecko) Chrome/148.0.0.0 Safari/537.36",
    "x-access-token": "<redacted>"
  },
  "request_body": null,
  "response_headers": {
    "access-control-allow-methods": "GET, POST, PUT, PATCH, DELETE, OPTIONS, HEAD",
    "access-control-allow-origin": "*",
    "access-control-expose-headers": "",
    "access-control-max-age": "7200",
    "cache-control": "max-age=0, private, must-revalidate",
    "content-encoding": "gzip",
    "content-length": "12945",
    "content-type": "application/json; charset=utf-8",
    "date": "Fri, 22 May 2026 19:40:52 GMT",
    "etag": "W/\"62eb16e69c414d7358a43f1731f82dba\"",
    "referrer-policy": "strict-origin-when-cross-origin",
    "vary": "Accept, Accept-Encoding, Origin",
    "x-content-type-options": "nosniff",
    "x-download-options": "noopen",
    "x-frame-options": "SAMEORIGIN",
    "x-permitted-cross-domain-policies": "none",
    "x-request-id": "3973b156-3d4a-4682-bf4c-c3b41efc66d2",
    "x-runtime": "0.097397",
    "x-xss-protection": "1; mode=block"
  },
  "response_body": "{\"current_page\":1,\"total_count\":167906848,\"total_pages\":8395343,\"results\":[{\"listing_id\":<REDACTED:phone-like-number>,\"currency_code\":\"USD\",\"title\":\"Purple Pomba Gira Oudh\",\"state\":\"active\",\"original_creation_tsz\":<REDACTED:phone-like-number>,\"created_at\":\"2026-05-12T02:24:47.000Z\",\"reindexed_at\":\"2026-05-19T14:32:17.008+00:00\",\"cached_est_reviews\":58,\"cached_est_reviews_in_months\":12,\"cached_est_total_sales\":269,\"cached_est_mo_sales\":10,\"cached_est_mo_revenue\":440000,\"cached_tags_used\":3,\"cached_title_character_count\":22,\"cached_visibility_score\":0,\"cached_listing_age_in_months\":5,\"cached_data_updated_at\":\"2026-05-19T04:52:28.742Z\",\"cached_conversion_rate\":5.96,\"quantity\":57,\"price\":\"44000.00\",\"tags\":[\"purple pomba gira\",\"pomba gira oudh\",\"oudh\"],\"url\":\"https://www.etsy.com/listing/<REDACTED:phone-like-number>/purple-pomba-gira-oudh\",\"num_favorers\":57,\"shop_age_month\":77,\"shop_name\":\"OudhofGira\",\"review_count\":5552,\"transaction_sold_count\":26063,\"digital_listing_count\":0,\"listing_active_count\":13,\"is_customizable\":false,\"is_personalizable\":false,\"has_variations\":false,\"is_supply\":false,\"processing_min\":5,\"shop_section_id\":null,\"shipping_from_country_iso\":\"US\",\"when_made\":\"2020_2026\",\"who_made\":\"i_did\",\"views\":4517,\"main_category\":\"Bath \\u0026 Beauty\",\"sub_category\":\"Fragrances\",\"listing_type\":\"physical\",\"should_auto_renew\":true,\"featured_rank\":2,\"shop_id\":\"437e61a1-8cb9-48c7-b5ef-8a4656221f47\",\"approach\":\"b\",\"shop_review_ratio\":21.3,\"Images\":\"https://i.etsystatic.com/21853095/r/il/690418/<REDACTED:phone-like-number>/il_170x135.7540033162_hhsg.jpg\",\"Shop\":{\"shop_name\":\"OudhofGira\",\"shop_id\":21853095,\"shop_age_month\":77,\"review_count\":5552,\"review_average\":4.9,\"transaction_sold_count\":26063,\"digital_listing_count\":0,\"num_favorers\":3311,\"listing_active_count\":13,\"icon_url_fullxfull\":\"https://i.etsystatic.com/21853095/r/isla/000cf6/64814584/isla_fullxfull.64814584_mgiui4h9.jpg\",\"created_at\":\"2022-10-06T21:53:45.526Z\",\"revenue_30_days\":444.<REDACTED:phone-like-number>,\"sales_30_days\":20,\"revenue\":41284.<REDACTED:phone-like-number>,\"currency_code\":\"USD\",\"shop_location_country_iso\":\"US\",\"review_rate\":21.3,\"conversion_rate\":30.45,\"views\":85584,\"create_date\":\"2019-12-12T10:16:43.000Z\",\"average_listing_price\":9338.<REDACTED:phone-like-number>,\"shop_date\":\"2019-12-19\",\"average_rating\":4.9,\"is_shops_getting_analyzed\":false,\"is_shops_listing_analyzed\":true,\"sale_per_listing\":2004.<REDACTED:phone-like-number>,\"shop_logo\":\"https://i.etsystatic.com/21853095/r/isla/000cf6/64814584/isla_fullxfull.64814584_mgiui4h9.jpg\",\"banner\":null,\"is_deactivated\":false,\"category\":\"Bath \\u0026 Beauty\",\"is_fav\":false,\"is_favorited\":false},\"id\":null,\"listing_age_in_months\":5,\"est_mo_sales\":10,\"est_mo_revenue\":440000,\"est_reviews\":58,\"est_reviews_in_months\":12,\"est_total_sales\":269,\"growth_rate\":0,\"is_fav\":false,\"tags_used\":3,\"curreny_symbol\":\"$\",\"tags_count\":3,\"title_character_count\":22,\"visibility_score\":0,\"conversion_rate\":5.96,\"last_modified_listing_date\":null,\"taxonomy_path\":[],\"trends\":[0,0,1,2,2,2,2,1,0,0,0,0,0,0,0,0,0,0,0,0,0,0,0,0,0,0,0,0,0,0]},{\"listing_id\":758559294,\"currency_code\":\"USD\",\"title\":\"Pomba Gira Red Rose Oudh\",\"state\":\"active\",\"original_creation_tsz\":<REDACTED:phone-like-number>,\"created_at\":\"2026-05-13T13:23:02.000Z\",\"reindexed_at\":\"2026-05-19T14:32:14.001+00:00\",\"cached_est_reviews\":72,\"cached_est_reviews_in_months\":1,\"cached_est_total_sales\":334,\"cached_est_mo_sales\":10,\"cached_est_mo_revenue\":440000,\"cached_tags_used\":13,\"cached_title_character_count\":24,\"cached_visibility_score\":0,\"cached_listing_age_in_months\":76,\"cached_data_updated_at\":\"2026-05-19T04:52:28.722Z\",\"cached_conversion_rate\":5.58,\"quantity\":82,\"price\":\"44000.00\",\"tags\":[\"oudh\",\"pomba gira oudh\",\"argarwood oudh\",\"pomba gira\",\"luxury body oil\",\"gifts for her\",\"luxury perfume\",\"aromatherapy\",\"love me oil\",\"luxury oudh\",\"love spell oil\",\"handmade perfume\",\"luxury skincare\"],\"url\":\"https://www.etsy.com/listing/758559294/pomba-gira-red-rose-oudh\",\"num_favorers\":126,\"shop_age_month\":77,\"shop_name\":\"OudhofGira\",\"review_count\":5552,\"transaction_sold_count\":26063,\"digital_listing_count\":0,\"listing_active_count\":13,\"is_customizable\":false,\"is_personalizable\":false,\"has_variations\":false,\"is_supply\":false,\"processing_min\":5,\"shop_section_id\":null,\"shipping_from_country_iso\":\"US\",\"when_made\":\"2020_2026\",\"who_made\":\"i_did\",\"views\":5991,\"main_category\":\"Craft Supplies \\u0026 Tools\",\"sub_category\":\"Fragrances\",\"listing_type\":\"physical\",\"should_auto_renew\":true,\"featured_rank\":3,\"shop_id\":\"437e61a1-8cb9-48c7-b5ef-8a4656221f47\",\"approach\":\"b\",\"shop_review_ratio\":21.3,\"Images\":\"https://i.etsystatic.com/21853095/r/il/170b39/<REDACTED:phone-like-number>/il_170x135.6818387519_ozhd.jpg\",\"Shop\":{\"shop_name\":\"OudhofGira\",\"shop_id\":21853095,\"shop_age_month\":77,\"review_count\":5552,\"review_average\":4.9,\"transaction_sold_count\":26063,\"digital_listing_count\":0,\"num_favorers\":3311,\"listing_active_count\":13,\"icon_url_fullxfull\":\"https://i.etsystatic.com/21853095/r/isla/000cf6/64814584/isla_fullxfull.64814584_mgiui4h9.jpg\",\"created_at\":\"2022-10-06T21:53:45.526Z\",\"revenue_30_days\":444.<REDACTED:phone-like-number>,\"sales_30_days\":20,\"revenue\":41284.<REDACTED:phone-like-number>,\"currency_code\":\"USD\",\"shop_location_country_iso\":\"US\",\"review_rate\":21.3,\"conversion_rate\":30.45,\"views\":85584,\"create_date\":\"2019-12-12T10:16:43.000Z\",\"average_listing_price\":9338.<REDACTED:phone-like-number>,\"shop_date\":\"2019-12-19\",\"average_rating\":4.9,\"is_shops_getting_analyzed\":false,\"is_shops_listing_analyzed\":true,\"sale_per_listing\":2004.<REDACTED:phone-like-number>,\"shop_logo\":\"https://i.etsystatic.com/21853095/r/isla/000cf6/64814584/isla_fullxfull.64814584_mgiui4h9.jpg\",\"banner\":null,\"is_deactivated\":false,\"category\":\"Bath \\u0026 Beauty\",\"is_fav\":false,\"is_favorited\":false},\"id\":null,\"listing_age_in_months\":76,\"est_mo_sales\":10,\"est_mo_revenue\":440000,\"est_reviews\":72,\"est_reviews_in_months\":1,\"est_total_sales\":334,\"growth_rate\":0,\"is_fav\":false,\"tags_used\":13,\"curreny_symbol\":\"$\",\"tags_count\":13,\"title_character_count\":24,\"visibility_score\":0,\"conversion_rate\":5.58,\"last_modified_listing_date\":null,\"taxonomy_path\":[],\"trends\":[0,1,2,2,2,2,1,0,0,0,0,0,0,0,0,0,0,0,0,0,0,0,0,0,0,0,0,0,0,0]},{\"listing_id\":<REDACTED:phone-like-number>,\"currency_code\":\"USD\",\"title\":\"Cheap Sketch Commission Digital Art Semi Realism Custom Drawing Black \\u0026 White\",\"state\":\"active\",\"original_creation_tsz\":<REDACTED:phone-like-number>,\"created_at\":\"2026-04-25T12:46:40.000Z\",\"reindexed_at\":\"2026-05-18T22:04:56.492+00:00\",\"cached_est_reviews\":58,\"cached_est_reviews_in_months\":19,\"cached_est_total_sales\":116,\"cached_est_mo_sales\":41,\"cached_est_mo_revenue\":103240,\"cached_tags_used\":13,\"cached_title_character_count\":77,\"cached_visibility_score\":100,\"cached_listing_age_in_months\":3,\"cached_data_updated_at\":\"2026-05-18T20:26:16.800Z\",\"cached_conversion_rate\":1.4,\"quantity\":32,\"price\":\"2518.04\",\"tags\":[\"sketch\",\"art sketch\",\"drawing commission\",\"art commission\",\"digital art\",\"custom art\",\"illustration\",\"black and white\",\"custom drawing\",\"custom illustration\",\"character art\",\"doodle\",\"digital drawing\"],\"url\":\"https://www.etsy.com/listing/<REDACTED:phone-like-number>/cheap-sketch-commission-digital-art-semi\",\"num_favorers\":439,\"shop_age_month\":4,\"shop_name\":\"kannorean\",\"review_count\":70,\"transaction_sold_count\":153,\"digital_listing_count\":6,\"listing_active_count\":6,\"is_customizable\":false,\"is_personalizable\":false,\"has_variations\":false,\"is_supply\":false,\"processing_min\":null,\"shop_section_id\":57272323,\"shipping_from_country_iso\":\"MY\",\"when_made\":\"made_to_order\",\"who_made\":\"i_did\",\"views\":8292,\"main_category\":\"Art \\u0026 Collectibles\",\"sub_category\":\"Digital\",\"listing_type\":\"download\",\"should_auto_renew\":true,\"featured_rank\":-1,\"shop_id\":\"29ae0992-5d36-4f67-b2dd-2183b0a9f5e6\",\"approach\":\"b\",\"shop_review_ratio\":45.75,\"Images\":\"https://i.etsystatic.com/64131019/r/il/b96cb4/<REDACTED:phone-like-number>/il_170x135.8001317991_qawa.jpg\",\"Shop\":{\"shop_name\":\"kannorean\",\"shop_id\":64131019,\"shop_age_month\":4,\"review_count\":70,\"review_average\":4.99,\"transaction_sold_count\":153,\"digital_listing_count\":6,\"num_favorers\":94,\"listing_active_count\":6,\"icon_url_fullxfull\":\"https://i.etsystatic.com/64131019/r/isla/8c39bf/82261408/isla_fullxfull.82261408_shijog0m.jpg\",\"created_at\":\"2026-02-03T01:33:42.793Z\",\"revenue_30_days\":104649.<REDACTED:phone-like-number>,\"sales_30_days\":43,\"revenue\":286307.<REDACTED:phone-like-number>,\"currency_code\":\"MYR\",\"shop_location_country_iso\":\"US\",\"review_rate\":45.75,\"conversion_rate\":1.24,\"views\":12364,\"create_date\":\"2026-01-18T14:19:43.000Z\",\"average_listing_price\":437.<REDACTED:phone-like-number>,\"shop_date\":\"2026-01-18\",\"average_rating\":4.99,\"is_shops_getting_analyzed\":false,\"is_shops_listing_analyzed\":true,\"sale_per_listing\":25.5,\"shop_logo\":\"https://i.etsystatic.com/64131019/r/isla/8c39bf/82261408/isla_fullxfull.82261408_shijog0m.jpg\",\"banner\":null,\"is_deactivated\":false,\"category\":\"Art \\u0026 Collectibles\",\"is_fav\":false,\"is_favorited\":false},\"id\":null,\"listing_age_in_months\":3,\"est_mo_sales\":41,\"est_mo_revenue\":103240,\"est_reviews\":58,\"est_reviews_in_months\":19,\"est_total_sales\":116,\"growth_rate\":-100,\"is_fav\":false,\"tags_used\":13,\"curreny_symbol\":\"$\",\"tags_count\":13,\"title_character_count\":77,\"visibility_score\":100,\"conversion_rate\":1.4,\"last_modified_listing_date\":null,\"taxonomy_path\":[],\"trends\":[1,0,0,0,1,3,2,1,2,3,2,1,1,2,2,1,1,2,1,1,2,2,2,2,1,2,1,1,1,0]},{\"listing_id\":<REDACTED:phone-like-number>,\"currency_code\":\"USD\",\"title\":\"Live Edge Coffee Table Solid Wood Table Reclaimed Wood Side Table Modern Farmhouse For Living Room Table Unique Home Decor\",\"state\":\"active\",\"original_creation_tsz\":<REDACTED:phone-like-number>,\"created_at\":\"2026-03-09T17:39:13.000Z\",\"reindexed_at\":\"2026-05-19T04:12:57.174+00:00\",\"cached_est_reviews\":5,\"cached_est_reviews_in_months\":1,\"cached_est_total_sales\":45,\"cached_est_mo_sales\":30,\"cached_est_mo_revenue\":101340,\"cached_tags_used\":13,\"cached_title_character_count\":122,\"cached_visibility_score\":100,\"cached_listing_age_in_months\":6,\"cached_data_updated_at\":\"2026-05-18T23:09:43.804Z\",\"cached_conversion_rate\":0.45,\"quantity\":6,\"price\":\"3378.00\",\"tags\":[\"wood coffee table\",\"driftwood table\",\"small coffee table\",\"farmhouse table\",\"live edge end table\",\"unique coffee table\",\"wood table top\",\"low coffee table\",\"live edge furniture\",\"rustic coffee table\",\"reclaimed furniture\",\"custom coffee table\",\"wooden sofa table\"],\"url\":\"https://www.etsy.com/listing/<REDACTED:phone-like-number>/live-edge-coffee-table-solid-wood-table\",\"num_favorers\":382,\"shop_age_month\":81,\"shop_name\":\"OwlCreationDesign\",\"review_count\":342,\"transaction_sold_count\":3638,\"digital_listing_count\":0,\"listing_active_count\":299,\"is_customizable\":false,\"is_personalizable\":true,\"has_variations\":true,\"is_supply\":false,\"processing_min\":25,\"shop_section_id\":53967171,\"shipping_from_country_iso\":\"MY\",\"when_made\":\"made_to_order\",\"who_made\":\"i_did\",\"views\":9972,\"main_category\":\"Home \\u0026 Living\",\"sub_category\":\"Coffee Tables\",\"listing_type\":\"physical\",\"should_auto_renew\":true,\"featured_rank\":-1,\"shop_id\":\"326602bb-cde5-4527-b666-a325f654500c\",\"approach\":\"b\",\"shop_review_ratio\":9.4,\"Images\":\"https://i.etsystatic.com/21015777/r/il/7a3591/<REDACTED:phone-like-number>/il_170x135.7446160919_3gzg.jpg\",\"Shop\":{\"shop_name\":\"OwlCreationDesign\",\"shop_id\":21015777,\"shop_age_month\":81,\"review_count\":342,\"review_average\":4.78,\"transaction_sold_count\":3638,\"digital_listing_count\":0,\"num_favorers\":768,\"listing_active_count\":299,\"icon_url_fullxfull\":\"https://i.etsystatic.com/21015777/r/isla/99c059/76429896/isla_fullxfull.76429896_7uu52j93.jpg\",\"created_at\":\"2022-10-03T05:54:43.949Z\",\"revenue_30_days\":169094.0,\"sales_30_days\":61,\"revenue\":1016783.0,\"currency_code\":\"USD\",\"shop_location_country_iso\":null,\"review_rate\":9.4,\"conversion_rate\":0.44,\"views\":828220,\"create_date\":\"2019-08-27T06:07:59.000Z\",\"average_listing_price\":2422.<REDACTED:phone-like-number>,\"shop_date\":\"2019-08-19\",\"average_rating\":4.78,\"is_shops_getting_analyzed\":false,\"is_shops_listing_analyzed\":true,\"sale_per_listing\":12.<REDACTED:phone-like-number>,\"shop_logo\":\"https://i.etsystatic.com/21015777/r/isla/99c059/76429896/isla_fullxfull.76429896_7uu52j93.jpg\",\"banner\":null,\"is_deactivated\":false,\"category\":\"Home \\u0026 Living\",\"is_fav\":false,\"is_favorited\":false},\"id\":null,\"listing_age_in_months\":6,\"est_mo_sales\":30,\"est_mo_revenue\":101340,\"est_reviews\":5,\"est_reviews_in_months\":1,\"est_total_sales\":45,\"growth_rate\":-100,\"is_fav\":false,\"tags_used\":13,\"curreny_symbol\":\"$\",\"tags_count\":13,\"title_character_count\":122,\"visibility_score\":100,\"conversion_rate\":0.45,\"last_modified_listing_date\":null,\"taxonomy_path\":[],\"trends\":[2,2,3,3,1,2,2,3,3,1,2,2,2,2,0,0,0,0,0,0,0,0,0,0,0,0,0,0,0,0]},{\"listing_id\":<REDACTED:phone-like-number>,\"currency_code\":\"USD\",\"title\":\"Luxury Calacatta Viola Marble Sink, Viola Premium Hand Carved Marble Wash Basin, Custom Size High Quality Bathroom Vanity\",\"state\":\"active\",\"original_creation_tsz\":<REDACTED:phone-like-number>,\"created_at\":\"2026-05-06T14:40:57.000Z\",\"reindexed_at\":\"2026-05-08T05:18:19.823+00:00\",\"cached_est_reviews\":8,\"cached_est_reviews_in_months\":1,\"cached_est_total_sales\":26,\"cached_est_mo_sales\":30,\"cached_est_mo_revenue\":89970,\"cached_tags_used\":13,\"cached_title_character_count\":121,\"cached_visibility_score\":100,\"cached_listing_age_in_months\":9,\"cached_data_updated_at\":\"2026-05-07T23:38:52.923Z\",\"cached_conversion_rate\":0.15,\"quantity\":134,\"price\":\"2999.00\",\"tags\":[\"marble sink\",\"bathroom wash basin\",\"marble wash basin\",\"calacatta viola sink\",\"viola marble sink\",\"calacattaviolamarble\",\"violet marble sink\",\"free shipping sink\",\"natural stone sink\",\"natural viola sink\",\"custom size sink\",\"custom vessel sink\",\"bathroom vanity\"],\"url\":\"https://www.etsy.com/listing/<REDACTED:phone-like-number>/luxury-calacatta-viola-marble-sink-viola\",\"num_favorers\":334,\"shop_age_month\":10,\"shop_name\":\"NaturalMarbleStore\",\"review_count\":16,\"transaction_sold_count\":113,\"digital_listing_count\":0,\"listing_active_count\":53,\"is_customizable\":false,\"is_personalizable\":false,\"has_variations\":true,\"is_supply\":false,\"processing_min\":2,\"shop_section_id\":null,\"shipping_from_country_iso\":\"TR\",\"when_made\":\"made_to_order\",\"who_made\":\"i_did\",\"views\":17586,\"main_category\":\"Home \\u0026 Living\",\"sub_category\":\"Sinks \\u0026 Basins\",\"listing_type\":\"physical\",\"should_auto_renew\":true,\"featured_rank\":2,\"shop_id\":\"f410f87b-f3e6-4bec-89e3-99df34c21f16\",\"approach\":\"b\",\"shop_review_ratio\":14.16,\"Images\":\"https://i.etsystatic.com/61125272/r/il/9be6cd/<REDACTED:phone-like-number>/il_170x135.7148787185_n0qz.jpg\",\"Shop\":{\"shop_name\":\"NaturalMarbleStore\",\"shop_id\":61125272,\"shop_age_month\":10,\"review_count\":16,\"review_average\":5.0,\"transaction_sold_count\":113,\"digital_listing_count\":0,\"num_favorers\":77,\"listing_active_count\":53,\"icon_url_fullxfull\":\"https://i.etsystatic.com/61125272/r/isla/79f6b2/83191985/isla_fullxfull.83191985_g9i1jqui.jpg\",\"created_at\":\"2025-07-27T23:47:40.773Z\",\"revenue_30_days\":0.0,\"sales_30_days\":0,\"revenue\":130627.0,\"currency_code\":\"USD\",\"shop_location_country_iso\":\"TR\",\"review_rate\":14.16,\"conversion_rate\":0.24,\"views\":48058,\"create_date\":\"2025-07-24T18:30:58.000Z\",\"average_listing_price\":2338.0,\"shop_date\":\"2025-07-08\",\"average_rating\":5.0,\"is_shops_getting_analyzed\":false,\"is_shops_listing_analyzed\":true,\"sale_per_listing\":2.<REDACTED:phone-like-number>,\"shop_logo\":\"https://i.etsystatic.com/61125272/r/isla/79f6b2/83191985/isla_fullxfull.83191985_g9i1jqui.jpg\",\"banner\":null,\"is_deactivated\":false,\"category\":\"Home \\u0026 Living\",\"is_fav\":false,\"is_favorited\":false},\"id\":null,\"listing_age_in_months\":9,\"est_mo_sales\":30,\"est_mo_revenue\":89970,\"est_reviews\":8,\"est_reviews_in_months\":1,\"est_total_sales\":26,\"growth_rate\":100,\"is_fav\":false,\"tags_used\":13,\"curreny_symbol\":\"$\",\"tags_count\":13,\"title_character_count\":121,\"visibility_score\":100,\"conversion_rate\":0.15,\"last_modified_listing_date\":null,\"taxonomy_path\":[],\"trends\":[0,0,0,0,2,2,2,2,2,2,3,1,1,1,1,2,2,1,1,1,1,1,0,0,0,0,0,0,1,1]},{\"listing_id\":<REDACTED:phone-like-number>,\"currency_code\":\"USD\",\"title\":\"Mom Mug, Mama Mug, Personalized Mom Cup, Custom Mama Cup, Mom Gifts with Kids Names, Mommy Birthday Mothers Day Gifts from Children Q-35L\",\"state\":\"active\",\"original_creation_tsz\":<REDACTED:phone-like-number>,\"created_at\":\"2026-05-07T18:04:08.000Z\",\"reindexed_at\":\"2026-05-07T18:47:31.529+00:00\",\"cached_est_reviews\":928,\"cached_est_reviews_in_months\":66,\"cached_est_total_sales\":8174,\"cached_est_mo_sales\":2421,\"cached_est_mo_revenue\":83000,\"cached_tags_used\":13,\"cached_title_character_count\":137,\"cached_visibility_score\":100,\"cached_listing_age_in_months\":14,\"cached_data_updated_at\":\"2026-05-07T18:11:01.081Z\",\"cached_conversion_rate\":5.22,\"quantity\":15945,\"price\":\"23.99\",\"tags\":[\"personalized mom mug\",\"custom mom cup\",\"mama mug\",\"mama cup\",\"mama coffee mug\",\"mommy mug\",\"mommy coffee cup\",\"mother's day mug\",\"mom birthday gift\",\"mom christmas gift\",\"gifts",
  "response_body_known": true,
  "response_body_truncated": true,
  "redactions": [
    "request_headers.x-access-token"
  ]
}
